{
  "cases": {
    "C6657": "test_data/test_cases/login_test/login_test.Login",
    "C4157": "test_data/test_cases/login_test/login_test.Login",
    "C1594": "test_data/test_cases/login_test/login_test.Login",
    "C6811": "test_data/test_cases/login_test/login_test.Login",
    "C6655": "test_data/test_cases/login_test/login_test.Login",
    "C7958": "test_data/test_cases/login_test/login_test.Login",
    "C1606": "test_data/test_cases/login_test/login_test.Login",
    "C3479": "test_data/test_cases/login_test/login_test.Login",
    "C6812" : "test_data/test_cases/dashboard_test/dashboard_test.Dashboard",
    "C1734" : "test_data/test_cases/dashboard_test/dashboard_test.Dashboard",
    "C6651" : "test_data/test_cases/dashboard_test/dashboard_test.Dashboard",
    "C6927" : "test_data/test_cases/dashboard_test/dashboard_test.Dashboard",
    "C6944" : "test_data/test_cases/dashboard_test/dashboard_test.Dashboard",
    "C6928" : "test_data/test_cases/dashboard_test/dashboard_test.Dashboard",
    "C6929" : "test_data/test_cases/dashboard_test/dashboard_test.Dashboard",
    "C1653" : "test_data/test_cases/dashboard_test/dashboard_test.Dashboard",
    "C1654" : "test_data/test_cases/dashboard_test/dashboard_test.Dashboard",
    "C1655" : "test_data/test_cases/dashboard_test/dashboard_test.Dashboard",
    "C1656" : "test_data/test_cases/dashboard_test/dashboard_test.Dashboard",
  
    "unautomated": [] 
  },
  "browsers": {
    "chrome": {
      "window_size": "max"
    },
    "firefox": {
      "window_size": "max"
    }
  }
}